{
  "type": "crafting_shaped",
  "pattern": [
    " I ",
    "IPI",
    "SI "
  ],
  "key": {
    "I": {"item": "minecraft:iron_ingot"},
    "P": {"item": "minecraft:glass_pane"},
    "S": {"item": "minecraft:stick"}
  },
  "result": {
    "item": "funds:coin_lens"
  }
}