{
  "type": "crafting_shaped",
  "pattern": [
    "III",
    "ITI",
    "III"
  ],
  "key": {
    "I": {"item": "minecraft:iron_ingot"},
    "T": {"item": "minecraft:name_tag"}
  },
  "result": {
    "item": "funds:press_plate"
  }
}